Test case in phase 3

1 2 3 4 4
0 2 2 3 4
Correct : 3
Right position : 2

0 2 3 5 9
0 3 2 4 1
Correct : 3
Right position : 1

0 2 3 5 9
1 3 2 0 1
Correct : 3
Right position : 0

0 2 3 5 9
0 2 1 4 3
Correct : 3
Right position : 2

0 2 3 5 9
0 2 3 4 9
Correct : 4
Right position : 4

Test case in phase 4 when my limited guess is 3

Enter a guess for each of 5 numbers : 1 2 3 4 5
User : 1 2 3 4 5 
Correct : 3
Right position : 0
Enter a guess for each of 5 numbers : 1 2 3 4 5
User : 1 2 3 4 5 
Correct : 3
Right position : 0
Enter a guess for each of 5 numbers : 1 2 3 4 5
User : 1 2 3 4 5 
Correct : 3
Right position : 0
You lose
Secret numbers : 2 4 9 8 1 

Test case in phase 4 when my limited guess is 3 and winning in last time
1 2 3 4 5
Enter a guess for each of 5 numbers : 3 3 3 3 3
User : 3 3 3 3 3 
Correct : 1
Right position : 1
Enter a guess for each of 5 numbers : 3 3 3 3 3
User : 3 3 3 3 3 
Correct : 1
Right position : 1
Enter a guess for each of 5 numbers : 1 2 3 4 5
User : 1 2 3 4 5 
Congulation!! You are the winner!!
Your answer : 1 2 3 4 5 
Secret numbers : 1 2 3 4 5 
How many times you tried : 3

Test case in phase 5

Input the order((G)uess, (R)eview Guess, (N)ew Game, (Q)uit Game : g
Enter a guess for each of 5 numbers : 1 2 3 4 5
User : 1 2 3 4 5 
Correct : 2
Right position : 0
Input the order((G)uess, (R)eview Guess, (N)ew Game, (Q)uit Game : g
Enter a guess for each of 5 numbers : 3 8 6 7 8
User : 3 8 6 7 8 
Correct : 1
Right position : 0
Input the order((G)uess, (R)eview Guess, (N)ew Game, (Q)uit Game : g
Enter a guess for each of 5 numbers : 2 3 1 45
4
User : 2 3 1 45 4 
Correct : 1
Right position : 0
Input the order((G)uess, (R)eview Guess, (N)ew Game, (Q)uit Game : r
1-guess : 1 2 3 4 5 
2-guess : 3 8 6 7 8 
3-guess : 2 3 1 45 4 
Input the order((G)uess, (R)eview Guess, (N)ew Game, (Q)uit Game : n
Start new game
Input the order((G)uess, (R)eview Guess, (N)ew Game, (Q)uit Game : g   
Enter a guess for each of 5 numbers : 1 2 3 4 2
User : 1 2 3 4 2 
Correct : 1
Right position : 0
Input the order((G)uess, (R)eview Guess, (N)ew Game, (Q)uit Game : g
Enter a guess for each of 5 numbers : 2 4 2 1 3
User : 2 4 2 1 3 
Correct : 1
Right position : 1
Input the order((G)uess, (R)eview Guess, (N)ew Game, (Q)uit Game : r
1-guess : 1 2 3 4 2 
2-guess : 2 4 2 1 3 
Input the order((G)uess, (R)eview Guess, (N)ew Game, (Q)uit Game : n
Start new game
Input the order((G)uess, (R)eview Guess, (N)ew Game, (Q)uit Game : g
Enter a guess for each of 5 numbers : 2 1 3 4 5
User : 2 1 3 4 5 
Correct : 1
Right position : 0
Input the order((G)uess, (R)eview Guess, (N)ew Game, (Q)uit Game : r
1-guess : 2 1 3 4 5 
Input the order((G)uess, (R)eview Guess, (N)ew Game, (Q)uit Game : q
Bye!

Test case after function made
Input the order((G)uess, (R)eview Guess, (N)ew Game, (Q)uit Game : g
Enter a guess for each of 5 numbers : 1 2 3 4 5
User : 1, 2, 3, 4, 5
Correct : 2
Right position : 0
Input the order((G)uess, (R)eview Guess, (N)ew Game, (Q)uit Game : g
Enter a guess for each of 5 numbers : 4 2 5 6 8 
User : 4, 2, 5, 6, 8
Correct : 1
Right position : 1
Input the order((G)uess, (R)eview Guess, (N)ew Game, (Q)uit Game : r
Secret Code is 3, 9, 5, 9, 0
Guess 1:1, 2, 3, 4, 5: 2 numbers correct, 0 in right position.
Guess 2:4, 2, 5, 6, 8: 1 numbers correct, 1 in right position.
Input the order((G)uess, (R)eview Guess, (N)ew Game, (Q)uit Game : g
Enter a guess for each of 5 numbers : 3 9 5 9 0
User : 3, 9, 5, 9, 0
Congulation!! You are the winner!!
Your answer : 3, 9, 5, 9, 0
3, 9, 5, 9, 0
How many times you tried : 3
Input the order((G)uess, (R)eview Guess, (N)ew Game, (Q)uit Game : n
Start new game
Input the order((G)uess, (R)eview Guess, (N)ew Game, (Q)uit Game : 2 3 1 4 5
Invalid input
Input the order((G)uess, (R)eview Guess, (N)ew Game, (Q)uit Game : Invalid input
Input the order((G)uess, (R)eview Guess, (N)ew Game, (Q)uit Game : Invalid input
Input the order((G)uess, (R)eview Guess, (N)ew Game, (Q)uit Game : Invalid input
Input the order((G)uess, (R)eview Guess, (N)ew Game, (Q)uit Game : Invalid input
Input the order((G)uess, (R)eview Guess, (N)ew Game, (Q)uit Game : g 
Enter a guess for each of 5 numbers : 2 3 1 4 5
User : 2, 3, 1, 4, 5
Correct : 1
Right position : 0
Input the order((G)uess, (R)eview Guess, (N)ew Game, (Q)uit Game : r
Secret Code is 9, 8, 7, 3, 6
Guess 1:2, 3, 1, 4, 5: 1 numbers correct, 0 in right position.
Input the order((G)uess, (R)eview Guess, (N)ew Game, (Q)uit Game : g 2 3 4 5 6
Enter a guess for each of 5 numbers : User : 2, 3, 4, 5, 6
Correct : 2
Right position : 1
Input the order((G)uess, (R)eview Guess, (N)ew Game, (Q)uit Game : r
Secret Code is 9, 8, 7, 3, 6
Guess 1:2, 3, 1, 4, 5: 1 numbers correct, 0 in right position.
Guess 2:2, 3, 4, 5, 6: 2 numbers correct, 1 in right position.
Input the order((G)uess, (R)eview Guess, (N)ew Game, (Q)uit Game : n
Start new game
Input the order((G)uess, (R)eview Guess, (N)ew Game, (Q)uit Game : r
Secret Code is 7, 1, 1, 0, 3
Input the order((G)uess, (R)eview Guess, (N)ew Game, (Q)uit Game : q
Bye!