Operator : +
Num1 : 1
Num2 : 2
1 + 2 = 3.00

Operator : -
Num1 : 4
Num2 : 2.222
4 - 2.222 = 1.78

Operator : *
Num1 : 4
Num2 : 6.23123
4 * 6.23123 = 24.92

Operator : /
Num1 : 5
Num2 : 3.2
5 / 3.2 = 1.56

Operator : pow 
Num1 : 2
Num2 : 5
2 to the power of 5 = 32.00

Operator : root
Num1 : 5
Num2 : 2
5-th root of 2 = 2.24

Operator : sine
Num1 : 3.14
Sine of 3.14 = 0.00

Operator : log
Num1 : 11
Log10 of 11 = 1.04

Operator : help
1. +            A + B                   [Add A to B]
2. -            A - B                   [Subtract B from A]
3. *            A * B                   [Multiply A and B]
4. /            A / B                   [Divide A by B]
5. pow          A B                     [A to the power of B]
6. root                                 [the Ath root of B]
7. sine         Sin(A)                  [sine of A]
8. log          Log 10 (A)              [log of A]
9. help                                 [Print out help for the program]
10. cyl                                 [Volume of a cylinder radius r and height h]
11. int         P * R * 10              [Simple interest for 10yrs, principle P and % rate R]
12. dpt         T R                     [Dew point temperature using temperature T and
                                        relative humidity R as per formula below]
                                        
Operator : cyl
Radius : 5
Height : 10
Volume of a cylinder radius 5 and height 10 = 785.00

Operator : dpt
Temperature : 40
Humidity : 20
Dew point temperature using temperature 40 and relative humidity 20 as per formula below = 110.58

Operator : asdklfjasd
Invalid operator. Input the 'help' to check operators out.